// Jest Snapshot v1, https://goo.gl/fbAQLP

exports[`common shallow-renders correctly 1`] = `
<div
  className="MuiGrid-typeContainer-462 MuiGrid-spacing-xs-16-483 MuiGrid-align-items-xs-center-469 MuiGrid-justify-xs-center-478 withTheme-withWidth-inject-RctChatboxGridComponent-with-chatboxGridStore---root-461"
>
  <withStyles(GridWrapper)
    item={true}
    style={
      Object {
        "textAlign": "center",
      }
    }
    xs={true}
  >
    <withStyles(CircularProgress) />
  </withStyles(GridWrapper)>
</div>
`;
