[
    {
        "_id": "5a0c1aa77c2b96002d8f40ec",
        "id": "e6a0fd0f-6702-54ce-8af5-19936de52333",
        "position": 0,
        "active": true,
        "maximized": false,
        "user": {
            "_id": "5a0b1c2184700d002dd6cd8d",
            "id": "e6a0fd0f-6702-54ce-8af5-19936de52333",
            "email": "Eleanora99@hotmail.com",
            "password": "5CQgkNEVCdGvvSg",
            "token": "928fe353-f0f9-5095-8db2-7f803b73218f",
            "tokens": [
                {
                    "token": "d83df174-c5b2-5434-9c65-89eaa009f62b",
                    "role": "account"
                }
            ],
            "roles": [
                "account",
                "account",
                "account",
                "account",
                "account"
            ],
            "firstname": "Delilah",
            "lastname": "Goodwin",
            "company": "Kub, MacGyver and Lesch",
            "address": {
                "street": "9848 MacGyver Inlet",
                "city": "Joliefurt",
                "state": "Louisiana",
                "postcode": "38999-6969",
                "country": "Czech Republic"
            },
            "phone": "1-418-389-5075",
            "active": true,
            "diff1": true,
            "diff2": false,
            "diff3": false
        },
        "chatbox": {
            "_id": "5a0b1d46b62696002dabf5f2",
            "id": "e6a0fd0f-6702-54ce-8af5-19936de52333",
            "name": "Greenholt, Price and Becker",
            "description": "Vision-oriented eco-centric conglomeration"
        },
        "messages": []
    },
    {
        "_id": "5a0c1aa87c2b96002d8f40ed",
        "id": "928fe353-f0f9-5095-8db2-7f803b73218f",
        "position": 2,
        "active": true,
        "maximized": false,
        "user": {
            "_id": "5a0b1c2184700d002dd6cd8d",
            "id": "e6a0fd0f-6702-54ce-8af5-19936de52333",
            "email": "Eleanora99@hotmail.com",
            "password": "5CQgkNEVCdGvvSg",
            "token": "928fe353-f0f9-5095-8db2-7f803b73218f",
            "tokens": [
                {
                    "token": "d83df174-c5b2-5434-9c65-89eaa009f62b",
                    "role": "account"
                }
            ],
            "roles": [
                "account",
                "account",
                "account",
                "account",
                "account"
            ],
            "firstname": "Delilah",
            "lastname": "Goodwin",
            "company": "Kub, MacGyver and Lesch",
            "address": {
                "street": "9848 MacGyver Inlet",
                "city": "Joliefurt",
                "state": "Louisiana",
                "postcode": "38999-6969",
                "country": "Czech Republic"
            },
            "phone": "1-418-389-5075",
            "active": true,
            "diff1": true,
            "diff2": false,
            "diff3": false
        },
        "chatbox": {
            "_id": "5a0b1d46b62696002dabf5f4",
            "id": "d83df174-c5b2-5434-9c65-89eaa009f62b",
            "name": "Mosciski Inc",
            "description": "Extended exuding knowledge base"
        },
        "messages": []
    },
    {
        "_id": "5a0c1aac7c2b96002d8f40ee",
        "id": "d83df174-c5b2-5434-9c65-89eaa009f62b",
        "position": 1,
        "active": true,
        "maximized": false,
        "user": {
            "_id": "5a0b1c2184700d002dd6cd8d",
            "id": "e6a0fd0f-6702-54ce-8af5-19936de52333",
            "email": "Eleanora99@hotmail.com",
            "password": "5CQgkNEVCdGvvSg",
            "token": "928fe353-f0f9-5095-8db2-7f803b73218f",
            "tokens": [
                {
                    "token": "d83df174-c5b2-5434-9c65-89eaa009f62b",
                    "role": "account"
                }
            ],
            "roles": [
                "account",
                "account",
                "account",
                "account",
                "account"
            ],
            "firstname": "Delilah",
            "lastname": "Goodwin",
            "company": "Kub, MacGyver and Lesch",
            "address": {
                "street": "9848 MacGyver Inlet",
                "city": "Joliefurt",
                "state": "Louisiana",
                "postcode": "38999-6969",
                "country": "Czech Republic"
            },
            "phone": "1-418-389-5075",
            "active": true,
            "diff1": true,
            "diff2": false,
            "diff3": false
        },
        "chatbox": {
            "_id": "5a0b1d46b62696002dabf5f6",
            "id": "90379cc7-0bff-59f0-ad5e-c99b5dc28247",
            "name": "Turcotte, Lesch and Ritchie",
            "description": "Ergonomic didactic moratorium"
        },
        "messages": []
    },
    {
        "_id": "5a0c1aae7c2b96002d8f40ef",
        "id": "478532f3-192b-5aa0-b24e-425eef8096e9",
        "position": 1,
        "active": true,
        "maximized": false,
        "user": {
            "_id": "5a0b1c2184700d002dd6cd8d",
            "id": "e6a0fd0f-6702-54ce-8af5-19936de52333",
            "email": "Eleanora99@hotmail.com",
            "password": "5CQgkNEVCdGvvSg",
            "token": "928fe353-f0f9-5095-8db2-7f803b73218f",
            "tokens": [
                {
                    "token": "d83df174-c5b2-5434-9c65-89eaa009f62b",
                    "role": "account"
                }
            ],
            "roles": [
                "account",
                "account",
                "account",
                "account",
                "account"
            ],
            "firstname": "Delilah",
            "lastname": "Goodwin",
            "company": "Kub, MacGyver and Lesch",
            "address": {
                "street": "9848 MacGyver Inlet",
                "city": "Joliefurt",
                "state": "Louisiana",
                "postcode": "38999-6969",
                "country": "Czech Republic"
            },
            "phone": "1-418-389-5075",
            "active": true,
            "diff1": true,
            "diff2": false,
            "diff3": false
        },
        "chatbox": {
            "_id": "5a0b1d46b62696002dabf5f3",
            "id": "928fe353-f0f9-5095-8db2-7f803b73218f",
            "name": "Hessel, Lang and Ritchie",
            "description": "Seamless zero tolerance info-mediaries"
        },
        "messages": []
    }
]
